<svg xmlns="http://www.w3.org/2000/svg" width="28.149" height="26.771" viewBox="0 0 28.149 26.771">
  <path id="hollow_star" data-name="hollow star" d="M13,0l4.018,8.14L26,9.444l-6.5,6.339,1.533,8.944L13,20.5,4.965,24.727,6.5,15.783,0,9.444l8.982-1.3Z" transform="translate(1.074 1.13)" fill="none" stroke="#ffc400" stroke-width="1"/>
</svg>
