<svg xmlns="http://www.w3.org/2000/svg" width="576.211" height="43.001" viewBox="0 0 576.211 43.001">
  <g id="Group_906" data-name="Group 906" transform="translate(17530.5 16216.002)">
    <path id="Subtraction_33" data-name="Subtraction 33" d="M21.5,43A21.5,21.5,0,0,1,6.3,6.3,21.5,21.5,0,0,1,36.7,36.7,21.364,21.364,0,0,1,21.5,43Zm0-31A9.5,9.5,0,1,0,31,21.5,9.511,9.511,0,0,0,21.5,12Z" transform="translate(-17126.02 -16173.001) rotate(180)" fill="#b28c67"/>
    <path id="Subtraction_35" data-name="Subtraction 35" d="M21.5,43A21.5,21.5,0,0,1,6.3,6.3,21.5,21.5,0,0,1,36.7,36.7,21.364,21.364,0,0,1,21.5,43Zm0-31A9.5,9.5,0,1,0,31,21.5,9.511,9.511,0,0,0,21.5,12Z" transform="translate(-17487.5 -16173.001) rotate(180)" fill="#b28c67"/>
    <line id="Line_44" data-name="Line 44" x2="139.458" transform="translate(-17135.5 -16194.501)" fill="none" stroke="#b28c67" stroke-width="12"/>
    <path id="Path_2543" data-name="Path 2543" d="M27.666,0H168.953" transform="translate(-17331.648 -16194.501)" fill="none" stroke="#b28c67" stroke-width="12"/>
    <line id="Line_46" data-name="Line 46" x2="159.5" transform="translate(-17494 -16194.502)" fill="none" stroke="#b28c67" stroke-width="12"/>
    <path id="Subtraction_34" data-name="Subtraction 34" d="M21.5,43A21.5,21.5,0,0,1,6.3,6.3,21.5,21.5,0,0,1,36.7,36.7,21.364,21.364,0,0,1,21.5,43Zm0-31A9.5,9.5,0,1,0,31,21.5,9.511,9.511,0,0,0,21.5,12Z" transform="translate(-17297.473 -16173.001) rotate(180)" fill="#b28c67"/>
    <path id="Subtraction_40" data-name="Subtraction 40" d="M21.5,43A21.506,21.506,0,0,1,13.13,1.688,21.506,21.506,0,0,1,29.868,41.309,21.364,21.364,0,0,1,21.5,43Zm.249-17.437h0l6.761,6.761,3.977-3.977-6.762-6.762,6.761-6.761-3.977-3.977-6.761,6.761-6.76-6.761-3.977,3.977,6.761,6.761-6.762,6.762,3.977,3.977,6.76-6.761Z" transform="translate(-16997.289 -16215.999)" fill="#e20606"/>
  </g>
</svg>
